[
  {
    "key": 1,
    "name": "B. F. Sword",
    "image": "1",
    "description": "+20.0 Attack Damage",
    "baseItem": true,
    "combinations": [
      {
        "with": 1,
        "finish": 9
      },
      {
        "with": 2,
        "finish": 10
      },
      {
        "with": 3,
        "finish": 11
      },
      {
        "with": 4,
        "finish": 12
      },
      {
        "with": 5,
        "finish": 13
      },
      {
        "with": 6,
        "finish": 14
      },
      {
        "with": 7,
        "finish": 15
      },
      {
        "with": 8,
        "finish": 16
      }
    ]
  },
  {
    "key": 2,
    "name": "Recurve Bow",
    "image": "2",
    "description": "+15.0% Attack Speed",
    "baseItem": true,
    "combinations": [
      {
        "with": 1,
        "finish": 10
      },
      {
        "with": 2,
        "finish": 17
      },
      {
        "with": 3,
        "finish": 18
      },
      {
        "with": 4,
        "finish": 19
      },
      {
        "with": 5,
        "finish": 20
      },
      {
        "with": 6,
        "finish": 21
      },
      {
        "with": 7,
        "finish": 22
      },
      {
        "with": 8,
        "finish": 23
      }
    ]
  },
  {
    "key": 3,
    "name": "Needlessly Large Rod",
    "image": "3",
    "description": "+20.0% Spell Damage",
    "baseItem": true,
    "combinations": [
      {
        "with": 1,
        "finish": 11
      },
      {
        "with": 2,
        "finish": 18
      },
      {
        "with": 3,
        "finish": 24
      },
      {
        "with": 4,
        "finish": 25
      },
      {
        "with": 5,
        "finish": 26
      },
      {
        "with": 6,
        "finish": 27
      },
      {
        "with": 7,
        "finish": 28
      },
      {
        "with": 8,
        "finish": 29
      }
    ]
  },
  {
    "key": 4,
    "name": "Tear of the Goddess",
    "image": "4",
    "description": "+20.0 Mana",
    "baseItem": true,
    "combinations": [
      {
        "with": 1,
        "finish": 12
      },
      {
        "with": 2,
        "finish": 19
      },
      {
        "with": 3,
        "finish": 25
      },
      {
        "with": 4,
        "finish": 30
      },
      {
        "with": 5,
        "finish": 31
      },
      {
        "with": 6,
        "finish": 32
      },
      {
        "with": 7,
        "finish": 33
      },
      {
        "with": 8,
        "finish": 34
      }
    ]
  },
  {
    "key": 5,
    "name": "Chain Vest",
    "image": "5",
    "description": "+20.0 Armor",
    "baseItem": true,
    "combinations": [
      {
        "with": 1,
        "finish": 13
      },
      {
        "with": 2,
        "finish": 20
      },
      {
        "with": 3,
        "finish": 26
      },
      {
        "with": 4,
        "finish": 31
      },
      {
        "with": 5,
        "finish": 35
      },
      {
        "with": 6,
        "finish": 36
      },
      {
        "with": 7,
        "finish": 37
      },
      {
        "with": 8,
        "finish": 38
      }
    ]
  },
  {
    "key": 6,
    "name": "Negatron Cloak",
    "image": "6",
    "description": "+20.0 Magic Resist",
    "baseItem": true,
    "combinations": [
      {
        "with": 1,
        "finish": 14
      },
      {
        "with": 2,
        "finish": 21
      },
      {
        "with": 3,
        "finish": 27
      },
      {
        "with": 4,
        "finish": 32
      },
      {
        "with": 5,
        "finish": 36
      },
      {
        "with": 6,
        "finish": 39
      },
      {
        "with": 7,
        "finish": 40
      },
      {
        "with": 8,
        "finish": 41
      }
    ]
  },
  {
    "key": 7,
    "name": "Giant's Belt",
    "image": "7",
    "description": "+200.0 Health",
    "baseItem": true,
    "combinations": [
      {
        "with": 1,
        "finish": 15
      },
      {
        "with": 2,
        "finish": 22
      },
      {
        "with": 3,
        "finish": 28
      },
      {
        "with": 4,
        "finish": 33
      },
      {
        "with": 5,
        "finish": 37
      },
      {
        "with": 6,
        "finish": 40
      },
      {
        "with": 7,
        "finish": 42
      },
      {
        "with": 8,
        "finish": 43
      }
    ]
  },
  {
    "key": 8,
    "name": "Spatula",
    "image": "8",
    "description": "It must do something...",
    "baseItem": true,
    "combinations": [
      {
        "with": 1,
        "finish": 16
      },
      {
        "with": 2,
        "finish": 23
      },
      {
        "with": 3,
        "finish": 29
      },
      {
        "with": 4,
        "finish": 34
      },
      {
        "with": 5,
        "finish": 38
      },
      {
        "with": 6,
        "finish": 41
      },
      {
        "with": 7,
        "finish": 43
      },
      {
        "with": 8,
        "finish": 44
      }
    ]
  },
  {
    "key": 9,
    "name": "Infinity Edge",
    "image": "11",
    "description": "Critical Strikes deal +100.0% damage"
  },
  {
    "key": 10,
    "name": "Sword of the Divine",
    "image": "12",
    "description": "Each second, the wearer has a 5.0% chance to gain 100% Critical Strike"
  },
  {
    "key": 11,
    "name": "Hextech Gunblade",
    "image": "13",
    "description": "Heal for 25.0% of all damage dealt"
  },
  {
    "key": 12,
    "name": "Spear of Shojin",
    "image": "14",
    "description": "After casting, wearer gains 20.0% of its max mana per attack"
  },
  {
    "key": 13,
    "name": "Guardian Angel",
    "image": "15",
    "description": "Wearer revives with 300.0 Health"
  },
  {
    "key": 14,
    "name": "The Bloodthirster",
    "image": "16",
    "description": "Attacks heal for 35 of damage"
  },
  {
    "key": 15,
    "name": "Zeke's Herald",
    "image": "17",
    "description": "Adjacent allies gain +20.0% Attack Speed"
  },
  {
    "key": 16,
    "name": "Youmuu's Ghostblade",
    "image": "18",
    "description": "Wearer is also an Assassin"
  },
  {
    "key": 17,
    "name": "Rapid Firecannon",
    "image": "22",
    "description": "Wearer's attacks cannot be dodged"
  },
  {
    "key": 18,
    "name": "Guinsoo's Rageblade",
    "image": "23",
    "description": "Attacks grant 3.0% Attack Speed"
  },
  {
    "key": 19,
    "name": "Statikk Shiv",
    "image": "24",
    "description": "Every 3rd attack deals 100.0 splash magical damage"
  },
  {
    "key": 20,
    "name": "Phantom Dancer",
    "image": "25",
    "description": "Wearer dodges all Critical Strikes"
  },
  {
    "key": 21,
    "name": "Cursed Blade",
    "image": "26",
    "description": "Attacks have a low chance to Shrink (Reduce enemy's star level by 1)"
  },
  {
    "key": 22,
    "name": "Titanic Hydra",
    "image": "27",
    "description": "Attacks deal 10.0% of the wearer's max Health as splash damage"
  },
  {
    "key": 23,
    "name": "Blade of the Ruined King",
    "image": "28",
    "description": "Wearer is also a Blademaster"
  },
  {
    "key": 24,
    "name": "Rabadon's Deathcap",
    "image": "33",
    "description": "Wearer's Spell Damage stat is amplified by 50.0%"
  },
  {
    "key": 25,
    "name": "Luden's Echo",
    "image": "34",
    "description": "Spells deal 100.0 splash damage on hit"
  },
  {
    "key": 26,
    "name": "Locket of the Iron Solari",
    "image": "35",
    "description": "On start of combat, all adjacent allies gain a shield of 200.0"
  },
  {
    "key": 27,
    "name": "Ionic Spark",
    "image": "36",
    "description": "Whenever an enemy casts a spell, they take 100.0 damage"
  },
  {
    "key": 28,
    "name": "Morellonomicon",
    "image": "37",
    "description": "Spells deal burn damage equal to 5.0% of the enemy's maximum health per second"
  },
  {
    "key": 29,
    "name": "Yuumi",
    "image": "38",
    "description": "Wearer is also a Sorcerer"
  },
  {
    "key": 30,
    "name": "Seraph's Embrace",
    "image": "44",
    "description": "Regain 20.0 mana each time a spell is cast"
  },
  {
    "key": 31,
    "name": "Frozen Heart",
    "image": "45",
    "description": "Adjacent enemies lose 20.0% Attack Speed"
  },
  {
    "key": 32,
    "name": "Hush",
    "image": "46",
    "description": "Attacks have a high chance to Silence"
  },
  {
    "key": 33,
    "name": "Redemption",
    "image": "47",
    "description": "On death, heal all nearby allies for 1000.0 Health"
  },
  {
    "key": 34,
    "name": "Darkin",
    "image": "48",
    "description": "Wearer is also a Demon"
  },
  {
    "key": 35,
    "name": "Thornmail",
    "image": "55",
    "description": "Reflect 25.0% of damage taken from attacks"
  },
  {
    "key": 36,
    "name": "Sword Breaker",
    "image": "56",
    "description": "Attacks have a chance to disarm"
  },
  {
    "key": 37,
    "name": "Red Buff",
    "image": "57",
    "description": "Attacks deal 2.5% burn damage"
  },
  {
    "key": 38,
    "name": "Knight's Vow",
    "image": "58",
    "description": "Wearer is also a Knight"
  },
  {
    "key": 39,
    "name": "Dragon's Claw",
    "image": "66",
    "description": "Gain 83.0% resistance to magic damage"
  },
  {
    "key": 40,
    "name": "Zephyr",
    "image": "67",
    "description": "On start of combat, banish an enemy for 5.0 seconds"
  },
  {
    "key": 41,
    "name": "Runaan's Hurricane",
    "image": "68",
    "description": "Attacks target 2.0 additional enemies"
  },
  {
    "key": 42,
    "name": "Warmog's Armor",
    "image": "77",
    "description": "Wearer regenerates 2.5% max Health per second"
  },
  {
    "key": 43,
    "name": "Frozen Mallet",
    "image": "78",
    "description": "Wearer is also a Glacial"
  },
  {
    "key": 44,
    "name": "Force of Nature",
    "image": "88",
    "description": "Gain +1.0 team size"
  }
]
